Reshaping data
…
I have found `pivot_wider` and `pivot_longer` to be easier to use than `spread` and `gather`, so I am only teaching the `pivot` functions. However, you are welcome to use `spread` and `gather` in your assignments.

---

## pivot to longer data

We'll start with the long covid-19 data:

```r
cv19
```

```
## # A tibble: 2,161 x 4
##    date       state      cases deaths
##    <date>     <chr>      <dbl>  <dbl>
##  1 2020-01-21 Washington     1      0
##  2 2020-01-22 Washington     1      0
##  3 2020-01-23 Washington     1      0
##  4 2020-01-24 Illinois       1      0
##  5 2020-01-24 Washington     1      0
##  6 2020-01-25 California     1      0
##  7 2020-01-25 Illinois       1      0
##  8 2020-01-25 Washington     1      0
##  9 2020-01-26 Arizona        1      0
## 10 2020-01-26 California     2      0
## # ... with 2,151 more rows
```
…
---

## Pivot to wider data

We'll start with the `nhanes_long` data

```r
nhanes_long
```

```
## # A tibble: 30 x 4
## # Groups:   exam, sex [6]
##    exam  sex    race_ethnicity     bp_sys_mmhg
##    <fct> <fct>  <fct>                    <dbl>
##  1 2013  Female Non-Hispanic White        121.
##  2 2013  Female Non-Hispanic Black        125.
##  3 2013  Female Non-Hispanic Asian        118.
##  4 2013  Female Hispanic                  119.
##  5 2013  Female Other race                119.
##  6 2013  Male   Non-Hispanic White        123.
##  7 2013  Male   Non-Hispanic Black        129.
##  8 2013  Male   Non-Hispanic Asian        123.
##  9 2013  Male   Hispanic                  124.
## 10 2013  Male   Other race                123.
## # ... with 20 more rows
```
…
---

## Pivot longer with 2+ names

Columns are named `[sex value]_[exam value]`

- so tell `pivot_longer` that `names_sep = "_"`

```r
pivot_longer(nhanes_wider, cols = -race_ethnicity, 
    names_to = c('sex', 'exam'), names_sep = '_')
```

```
## # A tibble: 30 x 4
##    race_ethnicity     sex    exam  value
##    <fct>              <chr>  <chr> <dbl>
##  1 Non-Hispanic White Female 2013   121.
##  2 Non-Hispanic White Female 2015   124.
##  3 Non-Hispanic White Female 2017   125.
##  4 Non-Hispanic White Male   2013   123.
##  5 Non-Hispanic White Male   2015   126.
##  6 Non-Hispanic White Male   2017   127.
##  7 Non-Hispanic Black Female 2013   125.
##  8 Non-Hispanic Black Female 2015   126.
##  9 Non-Hispanic Black Female 2017   131.
## 10 Non-Hispanic Black Male   2013   129.
## # ... with 20 more rows
```
…
